…
```r
Af_Esp<-(filter(NewBDD_Vie, Pays==c("Guinea", "Cameroon", "Niger", "Burkina Faso", "Senegal", "Madagascar", "Togo", "Chad","Benin")))
```

================================

```r
list(Af_Esp)
```

```
[[1]]
# A tibble: 29 x 3
   Pays         Année     Esperance
   <chr>        <chr>         <dbl>
 1 Benin        2055-2060      67.8
 2 Benin        2010-2015      59.9
 3 Benin        1965-1970      40.9
 4 Burkina Faso 2095-2100      76.3
 5 Burkina Faso 2050-2055      70.2
 6 Burkina Faso 2005-2010      55.3
 7 Burkina Faso 1960-1965      35.6
 8 Cameroon     2075-2080      76.4
 9 Cameroon     2030-2035      65.3
10 Cameroon     1985-1990      52.8
# ... with 19 more rows
```
